{
  "swagger": "2.0",
  "info": {
    "title": "Social Network",
    "description": "This is the next big thing",
    "contact": {
      "email": "kejvi.peti@atis.al"
    },
    "version": "1.0.0"
  },
  "host": "localhost/socialnetwork/public",
  "basePath": "/api",
  "schemes": [
    "http",
    "https"
  ],
  "paths": {
    "/register": {
      "post": {
        "tags": [
          "Authentication"
        ],
        "summary": "Register user.",
        "description": "Register User",
        "operationId": "api.register.user",
        "produces": [
          "application/json"
        ],
        "parameters": [
          {
            "name": "name",
            "in": "formData",
            "description": "Set User's Name.",
            "required": true,
            "type": "string"
          },
          {
            "name": "email",
            "in": "formData",
            "description": "Set the email address.",
            "required": true,
            "type": "string"
          },
          {
            "name": "password",
            "in": "formData",
            "description": "Set the desired password.",
            "required": true,
            "type": "string"
          },
          {
            "name": "password_confirm",
            "in": "formData",
            "description": "Reenter the password to cenfirm it.",
            "required": true,
            "type": "string"
          }
        ],
        "responses": {
          "200": {
            "description": "User successfully registred."
          },
          "401": {
            "description": "Wrong input in the fields"
          }
        }
      }
    },
    "/login": {
      "post": {
        "tags": [
          "Authentication"
        ],
        "summary": "User Login.",
        "description": "User Login.",
        "operationId": "api.login.user",
        "produces": [
          "application/json"
        ],
        "parameters": [
          {
            "name": "email",
            "in": "formData",
            "description": "Insert the email address.",
            "required": true,
            "type": "string"
          },
          {
            "name": "password",
            "in": "formData",
            "description": "Insert password.",
            "required": true,
            "type": "string"
          }
        ],
        "responses": {
          "200": {
            "description": "Logged in successfully.",
            "schema": {
              "type": "array",
              "items": {
                "$ref": "#/definitions/User"
              }
            }
          },
          "401": {
            "description": "Wrong input in the fields"
          }
        }
      }
    },
    "/logout": {
      "get": {
        "tags": [
          "Authentication"
        ],
        "summary": "User Logout.",
        "description": "User Logout.",
        "operationId": "api.logout.user",
        "produces": [
          "application/json"
        ],
        "parameters": [
        ],
        "responses": {
          "200": {
            "description": "User successfully logged out."
          },
          "401": {
            "description": "Token not provided"
          },
          "500": {
            "description": "Failed to log out"
          }
        },
        "security": [
          {
            "Authorization": []
          }
        ]
      }
    },
    "/post": {
      "post": {
        "tags": [
          "Posts"
        ],
        "summary": "User Post.",
        "description": "User Post.",
        "operationId": "api.post.user",
        "produces": [
          "application/json"
        ],
        "parameters": [
          {
            "name": "content",
            "in": "formData",
            "description": "The content of the post.",
            "required": true,
            "type": "string"
          },
          {
            "name": "image",
            "in": "formData",
            "description": "The image for the post.",
            "required": false,
            "type": "file"
          }
        ],
        "responses": {
          "200": {
            "description": "User successfully registered."
          },
          "400": {
            "description": "Wrong input in the fields."
          },
          "401": {
            "description": "You are not authenticated."
          }
        },
        "security": [
          {
            "Authorization": []
          }
        ]
      },
      "get": {
        "tags": [
          "Posts"
        ],
        "summary": "Get users posts.",
        "description": "Get users posts.",
        "operationId": "api.posts.user",
        "produces": [
          "application/json"
        ],
        "parameters": [
        ],
        "responses": {
          "200": {
            "description": "Posts recieved successfully.",
            "schema": {
              "type": "array",
              "items": {
                "$ref": "#/definitions/Post"
              }
            }
          },
          "401": {
            "description": "You are not authenticated."
          }
        },
        "security": [
          {
            "Authorization": []
          }
        ]
      }
    },
    "/friends": {
      "get": {
        "tags": [
          "Friends"
        ],
        "summary": "User's Friends.",
        "description": "User's Friends.",
        "operationId": "api.showfriends.user",
        "produces": [
          "application/json"
        ],
        "parameters": [],
        "responses": {
          "200": {
            "description": "Users friends.",
            "schema": {
              "type": "array",
              "items": {
                "$ref": "#/definitions/User"
              }
            }
          },
          "401": {
            "description": "You are not authenticated."
          }
        },
        "security": [
          {
            "Authorization": []
          }
        ]
      },
      "post": {
        "tags": [
          "Friends"
        ],
        "summary": "Add a new friend.",
        "description": "Add a new friend.",
        "operationId": "api.addFriend.user",
        "produces": [
          "application/json"
        ],
        "parameters": [
          {
            "name": "id",
            "in": "formData",
            "description": "The id of the friend you want to add.",
            "required": true,
            "type": "string"
          }
        ],
        "responses": {
          "200": {
            "description": "Friend added successfully.",
            "schema": {
              "type": "array",
              "items": {
                "$ref": "#/definitions/User"
              }
            }
          },
          "400": {
            "description": "Something went wrong."
          },
          "401": {
            "description": "You are not authenticated."
          }
        },
        "security": [
          {
            "Authorization": []
          }
        ]
      }
    },
    "/friends/{id}": {
      "put": {
        "tags": [
          "Friends"
        ],
        "summary": "Confirm friendship.",
        "description": "Confirm friendship.",
        "operationId": "api.confirmFriend.user",
        "produces": [
          "application/json"
        ],
        "parameters": [
          {
            "name": "id",
            "in": "path",
            "description": "user id",
            "type": "integer"
          }
        ],
        "responses": {
          "200": {
            "description": "Friend added successfully."
          },
          "400": {
            "description": "Something went wrong."
          },
          "401": {
            "description": "You are not authenticated."
          }
        },
        "security": [
          {
            "Authorization": []
          }
        ]
      },
      "delete": {
        "tags": [
          "Friends"
        ],
        "summary": "Delete friendship.",
        "description": "Delete friendship.",
        "operationId": "api.deleteFriend.user",
        "produces": [
          "application/json"
        ],
        "parameters": [
          {
            "name": "id",
            "in": "path",
            "description": "user id",
            "type": "integer"
          }
        ],
        "responses": {
          "200": {
            "description": "Friend deleted successfully."
          },
          "400": {
            "description": "Something went wrong."
          },
          "401": {
            "description": "You are not authenticated."
          }
        },
        "security": [
          {
            "Authorization": []
          }
        ]
      }
    },
    "/friend/{id}": {
      "get": {
        "tags": [
          "Friends"
        ],
        "summary": "Get one friend.",
        "description": "Get one friend.",
        "operationId": "api.getOneFriend.user",
        "produces": [
          "application/json"
        ],
        "parameters": [
          {
            "name": "id",
            "in": "path",
            "description": "user id",
            "type": "integer"
          }
        ],
        "responses": {
          "200": {
            "description": "Friend info recieved successfully.",
            "schema": {
              "type": "array",
              "items": {
                "$ref": "#/definitions/User"
              }
            },
            "400": {
              "description": "Something went wrong."
            },
            "401": {
              "description": "You are not authenticated."
            }
          }
        },
        "security": [
          {
            "Authorization": []
          }
        ]
      }
    },
    "/requests": {
      "get": {
        "tags": [
          "Friends"
        ],
        "summary": "Get Friend Requests.",
        "description": "Get Friend Requests.",
        "operationId": "api.friendREquests.user",
        "produces": [
          "application/json"
        ],
        "parameters": [
        ],
        "responses": {
          "200": {
            "description": "List recieved successfully.",
            "schema": {
              "type": "array",
              "items": {
                "$ref": "#/definitions/Chat"
              }
            }
          },
          "400": {
            "description": "Something wrong happened."
          },
          "401": {
            "description": "Not authorized."
          }
        },
        "security": [
          {
            "Authorization": []
          }
        ]
      }
    },
    "/chat": {
      "get": {
        "tags": [
          "Chat"
        ],
        "summary": "Get users's chat list.",
        "description": "Get users's chat list.",
        "operationId": "api.chat.user",
        "produces": [
          "application/json"
        ],
        "parameters": [],
        "responses": {
          "200": {
            "description": "Logged in successfully.",
            "schema": {
              "type": "array",
              "items": {
                "$ref": "#/definitions/Chat"
              }
            }
          },
          "400": {
            "description": "Something wrong happened."
          },
          "401": {
            "description": "Not authorized."
          }
        },
        "security": [
          {
            "Authorization": []
          }
        ]
      }
    },
    "/message": {
      "post": {
        "tags": [
          "Chat"
        ],
        "summary": "Send a message.",
        "description": "Send a message.",
        "operationId": "api.messageSend.user",
        "produces": [
          "application/json"
        ],
        "parameters": [
          {
            "name": "msg",
            "in": "formData",
            "description": "Message",
            "type": "text"
          },
          {
            "name": "chat",
            "in": "formData",
            "description": "Chat ID",
            "type": "integer"
          }
        ],
        "responses": {
          "200": {
            "description": "Message Sent successfully."
          },
          "400": {
            "description": "Something wrong happened."
          },
          "401": {
            "description": "Not authorized."
          }
        },
        "security": [
          {
            "Authorization": []
          }
        ]
      }
    },
    "/message/{id}": {
      "get": {
        "tags": [
          "Chat"
        ],
        "summary": "Get Messages of a chat.",
        "description": "Send a message.",
        "operationId": "api.messageGet.user",
        "produces": [
          "application/json"
        ],
        "parameters": [
          {
            "name": "id",
            "in": "path",
            "description": "Chat ID",
            "type": "integer"
          }
        ],
        "responses": {
          "200": {
            "description": "Messages received successfully.",
            "schema": {
              "type": "array",
              "items": {
                "$ref": "#/definitions/Message"
              }
            }
          },
          "400": {
            "description": "Something wrong happened."
          },
          "401": {
            "description": "Not authorized."
          }
        },
        "security": [
          {
            "Authorization": []
          }
        ]
      }
    },
    "/home": {
      "get": {
        "tags": [
          "Home"
        ],
        "summary": "Get home feed.",
        "description": "Get home feed.",
        "operationId": "api.home.user",
        "produces": [
          "application/json"
        ],
        "parameters": [],
        "responses": {
          "200": {
            "description": "Messages received successfully.",
            "schema": {
              "type": "array",
              "items": {
                "$ref": "#/definitions/Post"
              }
            }
          },
          "400": {
            "description": "Something wrong happened."
          },
          "401": {
            "description": "Not authorized."
          }
        },
        "security": [
          {
            "Authorization": []
          }
        ]
      }
    },
    "/profile": {
      "get": {
        "tags": [
          "Profile"
        ],
        "summary": "Get Profile data.",
        "description": "Get Profile data.",
        "operationId": "api.profile.user",
        "produces": [
          "application/json"
        ],
        "parameters": [],
        "responses": {
          "200": {
            "description": "Profile data recieved successfully.",
            "schema": {
              "type": "array",
              "items": {
                "$ref": "#/definitions/User"
              },
            }
          },
          "400": {
            "description": "Something wrong happened."
          },
          "401": {
            "description": "Not authorized."
          }
        },
        "security": [
          {
            "Authorization": []
          }
        ]
      }
    },
    "/search/{search}": {
      "get": {
        "tags": [
          "Search"
        ],
        "summary": "Search for users who are not your friends.",
        "description": "Search for users who are not your friends.",
        "operationId": "api.search.user",
        "produces": [
          "application/json"
        ],
        "parameters": [
          {
            "name": "search",
            "in": "path",
            "description": "Search name",
            "type": "string"
          }
        ],
        "responses": {
          "200": {
            "description": "User's search successfully.",
            "schema": {
              "type": "array",
              "items": {
                "$ref": "#/definitions/User"
              },
            }
          },
          "400": {
            "description": "Something wrong happened."
          },
          "401": {
            "description": "Not authorized."
          }
        },
        "security": [
          {
            "Authorization": []
          }
        ]
      }
    }
  },
  "definitions": {
    "User": {
      "type": "object",
      "properties": {
        "id": {
          "type": "integer"
        },
        "name": {
          "type": "string"
        },
        "password": {
          "type": "string"
        },
        "image_id": {
          "type": "integer"
        },
        "remember_token": {
          "type": "string"
        },
        "created_at": {
          "type": "string",
          "format": "date"
        },
        "updated_at": {
          "type": "string",
          "format": "date"
        }
      }
    },
    "Post": {
      "type": "object",
      "properties": {
        "id": {
          "type": "integer"
        },
        "user_id": {
          "type": "integer"
        },
        "image_id": {
          "type": "integer"
        },
        "created_at": {
          "type": "string",
          "format": "date"
        },
        "updated_at": {
          "type": "string",
          "format": "date"
        }
      }
    },
    "Message": {
      "type": "object",
      "properties": {
        "id": {
          "type": "integer"
        },
        "message": {
          "type": "text"
        },
        "chat": {
          "type": "integer"
        },
        "sent": {
          "type": "integer"
        },
        "created_at": {
          "type": "string",
          "format": "date"
        },
        "updated_at": {
          "type": "string",
          "format": "date"
        }
      }
    },
    "Chat": {
      "type": "object",
      "properties": {
        "id": {
          "type": "integer"
        },
        "user1": {
          "type": "integer"
        },
        "user2": {
          "type": "integer"
        },
        "created_at": {
          "type": "string",
          "format": "date"
        },
        "updated_at": {
          "type": "string",
          "format": "date"
        }
      }
    },
    "Image": {
      "type": "object",
      "properties": {
        "id": {
          "type": "integer"
        },
        "path": {
          "type": "string"
        },
        "created_at": {
          "type": "string",
          "format": "date"
        },
        "updated_at": {
          "type": "string",
          "format": "date"
        }
      }
    },
    "Friend": {
      "type": "object",
      "properties": {
        "id": {
          "type": "integer"
        },
        "user1": {
          "type": "integer"
        },
        "user2": {
          "type": "integer"
        },
        "status1": {
          "type": "integer"
        },
        "status2": {
          "type": "integer"
        },
        "created_at": {
          "type": "string",
          "format": "date"
        },
        "updated_at": {
          "type": "string",
          "format": "date"
        }
      }
    }
  },
  "externalDocs": {
    "description": "Find out more about my website",
    "url": "http..."
  },
  "securityDefinitions": {
    "Authorization": {
      "name": "Authorization",
      "type": "apiKey",
      "description": "Add \"Bearer {JWT Token}\" to authorize request",
      "in": "header"
    }
  }
}
